Queller-Phil-ADA-homework-3
…
boot <- tibble() 

for (i in 1:1000) {
  s <- sample_n(log_df, size = nrow(log_df), replace = TRUE)
  fit <- lm(s, formula = log_HomeRange_km2 ~ log_Body_mass_female_mean)
  tidy <- tidy(fit) %>% pull(estimate) -> results
 names(results) <- tidy(fit)$term
 boot <- bind_rows(boot, results)
}

names(boot) <- c("beta0", "beta1")
boot

## # A tibble: 1,000 x 2
##     beta0 beta1
##     <dbl> <dbl>
##  1  -9.43 1.02 
##  2  -9.55 1.06 
##  3 -10.2  1.13 
##  4 -11.1  1.22 
##  5 -10.5  1.17 
##  6  -9.30 1.05 
##  7  -8.16 0.861
##  8  -8.02 0.852
##  9  -8.83 0.941
## 10  -8.89 0.942
## #  with 990 more rows
…
